<?xml version="1.0" encoding="UTF-8"?>
<svg width="92px" height="75px" viewBox="0 0 92 75" version="1.1" xmlns="http://www.w3.org/2000/svg" xmlns:xlink="http://www.w3.org/1999/xlink">
    <!-- Generator: Sketch 48.1 (47250) - http://www.bohemiancoding.com/sketch -->
    <title>CO 一氧化碳</title>
    <desc>Created with Sketch.</desc>
    <defs></defs>
    <g id="P1-首页" stroke="none" stroke-width="1" fill="none" fill-rule="evenodd" transform="translate(-558.000000, -316.000000)">
        <g id="空气质量指数" transform="translate(60.000000, 38.000000)" fill="#01BBFF">
            <g id="co" transform="translate(467.000000, 266.000000)">
                <path d="M53.48,12.408 C58.536,12.408 62.824,13.752 66.28,16.44 C69.736,19.128 71.784,22.776 72.424,27.32 L67.368,27.32 C66.728,23.992 65.064,21.432 62.504,19.64 C60.008,17.912 57,17.08 53.416,17.08 C48.104,17.08 44.008,18.936 41.128,22.648 C38.44,26.104 37.096,30.648 37.096,36.344 C37.096,42.04 38.376,46.584 41.064,49.912 C43.88,53.432 47.912,55.224 53.288,55.224 C56.936,55.224 60.008,54.264 62.568,52.344 C65.256,50.296 67.112,47.288 68.008,43.32 L73.064,43.32 C72.04,48.632 69.672,52.792 65.896,55.736 C62.376,58.488 58.152,59.896 53.288,59.896 C46.184,59.896 40.744,57.528 36.968,52.856 C33.512,48.632 31.848,43.128 31.848,36.344 C31.848,29.56 33.576,23.992 37.096,19.64 C40.936,14.776 46.44,12.408 53.48,12.408 Z M100.328,12.408 C107.112,12.408 112.552,14.648 116.52,19.256 C120.232,23.608 122.152,29.24 122.152,36.216 C122.152,43.128 120.232,48.696 116.52,53.048 C112.552,57.592 107.112,59.896 100.264,59.896 C93.416,59.896 88.04,57.592 84.072,53.048 C80.296,48.696 78.44,43.064 78.44,36.216 C78.44,29.304 80.296,23.672 84.072,19.32 C88.04,14.712 93.416,12.408 100.328,12.408 Z M100.328,17.08 C95.08,17.08 90.92,18.872 87.912,22.52 C85.096,25.976 83.688,30.52 83.688,36.216 C83.688,41.848 85.096,46.392 87.912,49.848 C90.856,53.432 95.016,55.224 100.264,55.224 C105.512,55.224 109.672,53.432 112.616,49.976 C115.432,46.52 116.904,41.976 116.904,36.216 C116.904,30.392 115.432,25.784 112.616,22.328 C109.672,18.808 105.576,17.08 100.328,17.08 Z M38,75.94 L55.98,75.94 L55.98,77.38 L38,77.38 L38,75.94 Z M59.42,77.28 L62.24,77.28 C61.96,76.72 61.68,76.22 61.36,75.76 L62.74,75.54 C63.02,76.04 63.28,76.62 63.54,77.28 L66.32,77.28 C66.66,76.72 66.9,76.14 67.06,75.54 L68.48,75.72 C68.28,76.28 68,76.8 67.66,77.28 L70.42,77.28 L70.42,78.46 L65.68,78.46 L65.68,79.84 L69.86,79.84 L69.86,80.98 L65.68,80.98 L65.68,82.42 L71.06,82.42 L71.06,83.6 L65.68,83.6 L65.68,85.92 L64.24,85.92 L64.24,83.6 L58.58,83.6 L58.58,82.42 L64.24,82.42 L64.24,80.98 L60.02,80.98 L60.02,79.84 L64.24,79.84 L64.24,78.46 L59.42,78.46 L59.42,77.28 Z M62.16,70.2 C61.26,71.54 60.1,72.72 58.68,73.74 L57.8,72.58 C59.86,71.16 61.26,69.42 62,67.36 L63.44,67.54 C63.28,68.02 63.08,68.5 62.86,68.96 L74.9,68.96 L74.9,70.2 L62.16,70.2 Z M61.44,71.42 L73.22,71.42 L73.22,72.58 L61.44,72.58 L61.44,71.42 Z M74.42,85.82 C73.5,85.8 72.84,85.3 72.4,84.32 C71.96,83.32 71.76,81.3 71.76,78.26 L71.76,75.08 L59.48,75.08 L59.48,73.88 L73.14,73.88 L73.14,78.26 C73.14,80.76 73.24,82.36 73.46,83.06 C73.62,83.76 73.88,84.12 74.28,84.12 C74.46,84.12 74.62,83.82 74.78,83.24 C74.88,82.74 75,82.12 75.12,81.38 L76.28,81.94 C76.02,83.5 75.74,84.54 75.42,85.06 C75.12,85.56 74.78,85.82 74.42,85.82 Z M83.94,67.52 L85.28,68.14 C84.58,69.82 83.68,71.38 82.6,72.86 L82.6,86.04 L81.16,86.04 L81.16,74.62 C80.26,75.6 79.28,76.54 78.22,77.42 L77.76,75.92 C80.6,73.48 82.66,70.68 83.94,67.52 Z M93.16,85.68 L89.34,85.68 C87.94,85.68 87.24,84.96 87.24,83.56 L87.24,77.46 C86.4,77.94 85.54,78.38 84.66,78.8 L84.02,77.44 C85.14,76.92 86.22,76.38 87.24,75.78 L87.24,67.76 L88.68,67.76 L88.68,74.9 C90.78,73.5 92.62,71.9 94.2,70.12 L95.2,71.26 C93.34,73.26 91.16,75.04 88.68,76.6 L88.68,83.36 C88.68,83.98 89,84.3 89.68,84.3 L92.92,84.3 C93.44,84.3 93.84,84.12 94.08,83.8 C94.3,83.48 94.44,82.32 94.52,80.34 L95.86,80.78 C95.72,83.08 95.48,84.48 95.14,84.96 C94.78,85.44 94.12,85.68 93.16,85.68 Z M113.8,70.6 L113.8,68.16 L115.14,68.16 L115.14,71.86 L105.92,71.86 L105.92,68.2 L107.24,68.2 L107.24,70.6 L109.86,70.6 L109.86,67.62 L111.22,67.62 L111.22,70.6 L113.8,70.6 Z M100.32,69.9 L98.18,69.9 L98.18,68.5 L104.58,68.5 L104.58,69.9 L101.72,69.9 C101.48,71.56 101.12,73.1 100.68,74.52 L104.14,74.52 L104.14,82.78 C105.62,80.62 106.5,78.08 106.74,75.14 L104.96,75.14 L104.96,73.8 L106.8,73.8 C106.8,73.64 106.82,73.48 106.82,73.32 L106.82,72.56 L108.14,72.56 L108.14,73.32 C108.14,73.48 108.12,73.64 108.12,73.8 L115.86,73.8 L115.86,75.14 L108.06,75.14 C107.78,78.48 106.78,81.36 105.08,83.78 L104.14,82.96 L104.14,83.9 L100.94,83.9 L100.94,85.18 L99.62,85.18 L99.62,77.24 C99.26,78.02 98.86,78.76 98.42,79.48 L97.66,78.24 C99,75.8 99.88,73.02 100.32,69.9 Z M100.94,82.66 L102.86,82.66 L102.86,75.8 L100.94,75.8 L100.94,82.66 Z M108.84,77.44 L109.98,77.74 C109.66,79.08 109.26,80.26 108.78,81.28 L107.7,80.9 C108.14,79.98 108.52,78.84 108.84,77.44 Z M114.54,77.16 L115.68,77.44 C115.4,78.8 115.02,80 114.56,81.04 L113.44,80.64 C113.86,79.72 114.22,78.56 114.54,77.16 Z M112.32,75.96 C112.32,76.9 112.3,77.84 112.28,78.78 C112.28,78.98 112.26,79.16 112.24,79.34 C112.94,81.78 114.3,83.66 116.32,84.98 L115.38,86 C113.62,84.72 112.42,83.16 111.8,81.32 C111.08,83.2 109.56,84.78 107.28,86.08 L106.34,85.02 C109.36,83.46 110.9,81.38 110.98,78.78 C110.98,77.8 111,76.86 111,75.96 L112.32,75.96 Z" id="CO-一氧化碳"></path>
            </g>
        </g>
    </g>
</svg>