{
    "status": 0,
    "data": {
        "title": "海淀街道空气质量指数",
        "series": [
            {
                "title": "中钢高点位置",
                "list": [
                    {
                        "type": "pm25",
                        "value": 13
                    },
                    {
                        "type": "so2",
                        "value": 245
                    },
                    {
                        "type": "no2",
                        "value": 188
                    },
                    {
                        "type": "ozone",
                        "value": 500
                    },
                    {
                        "type": "pm10",
                        "value": 78
                    },
                    {
                        "type": "co",
                        "value": 113
                    }
                ]
            },
            {
                "title": "AB花园中心位置",
                "list": [
                    {
                        "type": "pm25",
                        "value": 13
                    },
                    {
                        "type": "so2",
                        "value": 60
                    },
                    {
                        "type": "no2",
                        "value": 100
                    },
                    {
                        "type": "ozone",
                        "value": 160
                    },
                    {
                        "type": "pm10",
                        "value": 220
                    },
                    {
                        "type": "co",
                        "value": 500
                    }
                ]
            }
        ]
    }
}