{
    "status": 0,
    "data": {
        "pm25": ["18:207","19:196","20:146","21:23","22:132","23:200","00:108","01:204","02:120","03:83","04:867","05:261","06:80","07:236","08:290","09:58","10:86","11:123","12:271","13:186","14:68","15:75","16:202","17:155"],
        "ozone": ["18:147","19:134","20:66","21:103","22:256","23:290","00:24","01:247","02:86","03:81","04:141","05:143","06:216","07:79","08:130","09:95","10:54","11:93","12:268","13:237","14:146","15:241","16:60","17:119"],
        "so2": ["18:154","19:14","20:92","21:145","22:54","23:86","00:294","01:210","02:93","03:468","04:163","05:96","06:90","07:156","08:124","09:123","10:265","11:252","12:140","13:231","14:57","15:196","16:288","17:179"],
        "pm10": ["18:134","19:299","20:226","21:91","22:275","23:155","00:86","01:261","02:161","03:77","04:18","05:238","06:90","07:107","08:109","09:113","10:212","11:56","12:68","13:245","14:290","15:85","16:247","17:156"],
        "no2": ["18:77","19:243","20:204","21:195","22:169","23:219","00:283","01:137","02:130","03:718","04:82","05:172","06:142","07:122","08:210","09:193","10:96","11:227","12:106","13:26","14:231","15:226","16:220","17:258"],
        "co": ["18:298","19:124","20:579","21:191","22:148","23:123","00:54","01:156","02:13","03:149","04:115","05:268","06:224","07:266","08:172","09:90","10:66","11:97","12:246","13:159","14:138","15:273","16:267","17:68"]
    }
}