<?xml version="1.0" encoding="UTF-8"?>
<svg width="61px" height="60px" viewBox="0 0 61 60" version="1.1" xmlns="http://www.w3.org/2000/svg" xmlns:xlink="http://www.w3.org/1999/xlink">
    <!-- Generator: Sketch 48.1 (47250) - http://www.bohemiancoding.com/sketch -->
    <title>Group 10</title>
    <desc>Created with Sketch.</desc>
    <defs>
        <linearGradient x1="50%" y1="2.2002551%" x2="50%" y2="96.914521%" id="linearGradient-1">
            <stop stop-color="#4B66FB" offset="0%"></stop>
            <stop stop-color="#0C2865" offset="100%"></stop>
        </linearGradient>
        <linearGradient x1="50%" y1="1.25159439%" x2="50%" y2="100%" id="linearGradient-2">
            <stop stop-color="#FFFFFF" offset="0%"></stop>
            <stop stop-color="#FFFFFF" offset="100%"></stop>
        </linearGradient>
    </defs>
    <g id="P1-首页鼠标hover" stroke="none" stroke-width="1" fill="none" fill-rule="evenodd" transform="translate(-146.000000, -676.000000)">
        <g id="Group-7" transform="translate(0.000000, 667.000000)">
            <g id="Group-6" transform="translate(60.000000, 9.000000)">
                <g id="Group-5-Copy" transform="translate(86.400000, 0.000000)">
                    <g id="Group-10">
                        <rect id="Rectangle-5" fill="url(#linearGradient-1)" x="2.84217094e-14" y="0" width="60" height="60" rx="5"></rect>
                        <g id="Group-8" transform="translate(20.000000, 4.000000)">
                            <path d="M10.7504059,2.70660723 L5.22853351,2.36829155 L4.18848273,1 C3.23812273,1.48314908 2.64697888,2.15477083 2.41505118,3.01486525 C0.624202029,9.6561563 0.739026481,16.9169343 0.331778724,21.875046 C-0.344526077,30.1088415 0.10664578,46.2698442 0.847727263,49.1480323 C0.909635048,49.2724933 1.60164329,49.5564825 2.92375198,50 L11,48.6975013 L10.7504059,2.70660723 Z" id="Path-21" stroke="#FFFFFF" fill="#FFFFFF"></path>
                            <path d="M7.89865764,1.98037397 L13.682235,1.52276044 C13.175357,0.389816606 13.042406,-0.11093895 13.2833821,0.0204937675 C13.6448462,0.217642844 16.4771534,2.18507844 16.7934559,3.33340448 C18.128319,8.17958104 18.8856439,16.4595627 19.4620218,22.2461164 C20.2990372,30.6493449 20.1593474,39.2517751 19.0429525,48.0534069 L16.4143983,49 L11.9474145,48.792324 L6,48.0804807 L6.14993836,2.31120281 L7.89865764,1.98037397 Z" id="Path-22" stroke="#FFFFFF" fill="url(#linearGradient-2)"></path>
                            <path d="M4,1 L3,50" id="Path-23" stroke="#1F3A91"></path>
                            <path d="M15,1 C16.582736,12.2463324 17.4747611,19.5503436 17.6760753,22.9120336 C17.8773895,26.2737236 17.9853644,34.9697124 18,49" id="Path-24" stroke="#1F3A91"></path>
                        </g>
                    </g>
                </g>
            </g>
        </g>
    </g>
</svg>