<?xml version="1.0" encoding="UTF-8"?>
<svg width="61px" height="60px" viewBox="0 0 61 60" version="1.1" xmlns="http://www.w3.org/2000/svg" xmlns:xlink="http://www.w3.org/1999/xlink">
    <!-- Generator: Sketch 48.1 (47250) - http://www.bohemiancoding.com/sketch -->
    <title>Group 13</title>
    <desc>Created with Sketch.</desc>
    <defs>
        <linearGradient x1="50%" y1="2.2002551%" x2="50%" y2="96.914521%" id="linearGradient-1">
            <stop stop-color="#4B66FB" offset="0%"></stop>
            <stop stop-color="#0C2865" offset="100%"></stop>
        </linearGradient>
    </defs>
    <g id="P1-首页鼠标hover" stroke="none" stroke-width="1" fill="none" fill-rule="evenodd" transform="translate(-405.000000, -676.000000)">
        <g id="Group-7" transform="translate(0.000000, 667.000000)">
            <g id="Group-6" transform="translate(60.000000, 9.000000)">
                <g id="Group-5-Copy-4" transform="translate(345.600000, 0.000000)">
                    <g id="Group-13">
                        <rect id="Rectangle-5" fill="url(#linearGradient-1)" x="0" y="0" width="60" height="60" rx="5"></rect>
                        <path d="M22.824,11.056 C27.912,11.056 31.992,12.736 34.968,16.192 C37.752,19.456 39.192,23.68 39.192,28.912 C39.192,34.096 37.752,38.272 34.968,41.536 C31.992,44.944 27.912,46.672 22.776,46.672 C17.64,46.672 13.608,44.944 10.632,41.536 C7.8,38.272 6.408,34.048 6.408,28.912 C6.408,23.728 7.8,19.504 10.632,16.24 C13.608,12.784 17.64,11.056 22.824,11.056 Z M22.824,14.56 C18.888,14.56 15.768,15.904 13.512,18.64 C11.4,21.232 10.344,24.64 10.344,28.912 C10.344,33.136 11.4,36.544 13.512,39.136 C15.72,41.824 18.84,43.168 22.776,43.168 C26.712,43.168 29.832,41.824 32.04,39.232 C34.152,36.64 35.256,33.232 35.256,28.912 C35.256,24.544 34.152,21.088 32.04,18.496 C29.832,15.856 26.76,14.56 22.824,14.56 Z M48.576,28.528 C50.208,28.528 51.552,28.936 52.56,29.776 C53.544,30.616 54.048,31.744 54.048,33.184 C54.048,35.104 53.112,36.4 51.24,37.024 C52.248,37.336 53.016,37.816 53.544,38.488 C54.12,39.16 54.408,40 54.408,41.008 C54.408,42.568 53.856,43.84 52.776,44.824 C51.672,45.832 50.232,46.336 48.456,46.336 C46.824,46.336 45.504,45.904 44.472,45.088 C43.248,44.08 42.576,42.616 42.432,40.696 L44.424,40.696 C44.472,42.04 44.928,43.072 45.768,43.768 C46.488,44.344 47.376,44.656 48.456,44.656 C49.68,44.656 50.664,44.296 51.408,43.6 C52.08,42.928 52.44,42.088 52.44,41.08 C52.44,40.048 52.104,39.256 51.432,38.68 C50.76,38.104 49.848,37.84 48.648,37.84 L47.256,37.84 L47.256,36.304 L48.576,36.304 C49.728,36.304 50.592,36.04 51.192,35.536 C51.792,35.008 52.104,34.264 52.104,33.304 C52.104,32.344 51.792,31.6 51.216,31.072 C50.592,30.496 49.704,30.232 48.6,30.232 C47.448,30.232 46.56,30.52 45.912,31.144 C45.24,31.768 44.856,32.656 44.736,33.808 L42.792,33.808 C42.936,32.152 43.56,30.856 44.616,29.92 C45.624,28.984 46.944,28.528 48.576,28.528 Z" id="O3" fill="#FFFFFF"></path>
                    </g>
                </g>
            </g>
        </g>
    </g>
</svg>