<?xml version="1.0" encoding="UTF-8"?>
<svg width="61px" height="60px" viewBox="0 0 61 60" version="1.1" xmlns="http://www.w3.org/2000/svg" xmlns:xlink="http://www.w3.org/1999/xlink">
    <!-- Generator: Sketch 48.1 (47250) - http://www.bohemiancoding.com/sketch -->
    <title>Group 12</title>
    <desc>Created with Sketch.</desc>
    <defs>
        <linearGradient x1="50%" y1="2.2002551%" x2="50%" y2="96.914521%" id="linearGradient-1">
            <stop stop-color="#4B66FB" offset="0%"></stop>
            <stop stop-color="#0C2865" offset="100%"></stop>
        </linearGradient>
    </defs>
    <g id="P1-首页鼠标hover" stroke="none" stroke-width="1" fill="none" fill-rule="evenodd" transform="translate(-319.000000, -676.000000)">
        <g id="Group-7" transform="translate(0.000000, 667.000000)">
            <g id="Group-6" transform="translate(60.000000, 9.000000)">
                <g id="Group-5-Copy-3" transform="translate(259.200000, 0.000000)">
                    <g id="Group-12">
                        <rect id="Rectangle-5" fill="url(#linearGradient-1)" x="0" y="0" width="60" height="60" rx="5"></rect>
                        <path d="M13.94,9.864 L20.948,9.864 C24.884,9.864 26.852,11.544 26.852,14.904 C26.852,18.288 24.86,19.992 20.924,19.992 L15.908,19.992 L15.908,27 L13.94,27 L13.94,9.864 Z M15.908,11.568 L15.908,18.288 L20.828,18.288 C22.22,18.288 23.228,18 23.9,17.448 C24.548,16.896 24.884,16.056 24.884,14.904 C24.884,13.752 24.548,12.912 23.876,12.408 C23.204,11.832 22.196,11.568 20.828,11.568 L15.908,11.568 Z M29.348,9.864 L31.796,9.864 L38.18,24.48 L38.252,24.48 L44.612,9.864 L47.06,9.864 L47.06,27 L45.092,27 L45.092,13.368 L45.02,13.368 L39.092,27 L37.316,27 L31.388,13.368 L31.316,13.368 L31.316,27 L29.348,27 L29.348,9.864 Z M24.008,33.864 L25.544,33.864 L25.544,51 L23.576,51 L23.576,36.264 C22.496,37.368 21.152,38.136 19.544,38.616 L19.544,36.648 C20.312,36.432 21.128,36.096 21.944,35.616 C22.76,35.088 23.432,34.512 24.008,33.864 Z M35.312,33.528 C37.352,33.528 38.888,34.416 39.944,36.24 C40.856,37.776 41.312,39.84 41.312,42.432 C41.312,45.024 40.856,47.088 39.944,48.624 C38.888,50.424 37.352,51.336 35.312,51.336 C33.248,51.336 31.712,50.424 30.68,48.624 C29.768,47.088 29.312,45.024 29.312,42.432 C29.312,39.84 29.768,37.776 30.68,36.24 C31.712,34.416 33.248,33.528 35.312,33.528 Z M35.312,35.208 C33.776,35.208 32.672,36.024 32,37.68 C31.52,38.832 31.28,40.416 31.28,42.432 C31.28,44.424 31.52,46.008 32,47.184 C32.672,48.816 33.776,49.656 35.312,49.656 C36.848,49.656 37.952,48.816 38.624,47.184 C39.104,46.008 39.368,44.424 39.368,42.432 C39.368,40.416 39.104,38.832 38.624,37.68 C37.952,36.024 36.848,35.208 35.312,35.208 Z" id="PM-10" fill="#FFFFFF"></path>
                    </g>
                </g>
            </g>
        </g>
    </g>
</svg>