<?xml version="1.0" encoding="UTF-8"?>
<svg width="61px" height="60px" viewBox="0 0 61 60" version="1.1" xmlns="http://www.w3.org/2000/svg" xmlns:xlink="http://www.w3.org/1999/xlink">
    <!-- Generator: Sketch 48.1 (47250) - http://www.bohemiancoding.com/sketch -->
    <title>Group 11</title>
    <desc>Created with Sketch.</desc>
    <defs>
        <linearGradient x1="50%" y1="2.2002551%" x2="50%" y2="96.914521%" id="linearGradient-1">
            <stop stop-color="#4B66FB" offset="0%"></stop>
            <stop stop-color="#0C2865" offset="100%"></stop>
        </linearGradient>
    </defs>
    <g id="P1-首页鼠标hover" stroke="none" stroke-width="1" fill="none" fill-rule="evenodd" transform="translate(-232.000000, -676.000000)">
        <g id="Group-7" transform="translate(0.000000, 667.000000)">
            <g id="Group-6" transform="translate(60.000000, 9.000000)">
                <g id="Group-5-Copy-2" transform="translate(172.800000, 0.000000)">
                    <g id="Group-11">
                        <rect id="Rectangle-5" fill="url(#linearGradient-1)" x="0" y="0" width="60" height="60" rx="5"></rect>
                        <path d="M13.728,9.864 L20.736,9.864 C24.672,9.864 26.64,11.544 26.64,14.904 C26.64,18.288 24.648,19.992 20.712,19.992 L15.696,19.992 L15.696,27 L13.728,27 L13.728,9.864 Z M15.696,11.568 L15.696,18.288 L20.616,18.288 C22.008,18.288 23.016,18 23.688,17.448 C24.336,16.896 24.672,16.056 24.672,14.904 C24.672,13.752 24.336,12.912 23.664,12.408 C22.992,11.832 21.984,11.568 20.616,11.568 L15.696,11.568 Z M29.136,9.864 L31.584,9.864 L37.968,24.48 L38.04,24.48 L44.4,9.864 L46.848,9.864 L46.848,27 L44.88,27 L44.88,13.368 L44.808,13.368 L38.88,27 L37.104,27 L31.176,13.368 L31.104,13.368 L31.104,27 L29.136,27 L29.136,9.864 Z M19.44,33.528 C21.024,33.528 22.32,33.984 23.352,34.896 C24.36,35.808 24.888,37.032 24.888,38.52 C24.888,40.008 24.312,41.352 23.208,42.552 C22.608,43.176 21.432,44.112 19.656,45.312 C17.472,46.776 16.224,48.096 15.912,49.248 L24.912,49.248 L24.912,51 L13.488,51 C13.488,49.44 14.04,48.024 15.192,46.752 C15.864,45.984 17.088,44.952 18.912,43.704 C20.256,42.744 21.144,42.048 21.6,41.568 C22.464,40.632 22.92,39.6 22.92,38.496 C22.92,37.44 22.608,36.648 21.984,36.072 C21.36,35.496 20.472,35.208 19.368,35.208 C18.192,35.208 17.28,35.592 16.656,36.408 C15.984,37.176 15.624,38.328 15.6,39.84 L13.632,39.84 C13.632,37.92 14.184,36.384 15.24,35.256 C16.296,34.104 17.712,33.528 19.44,33.528 Z M29.568,48.144 C29.952,48.144 30.312,48.288 30.6,48.576 C30.888,48.864 31.032,49.2 31.032,49.632 C31.032,50.04 30.888,50.376 30.6,50.664 C30.312,50.952 29.952,51.096 29.568,51.096 C29.136,51.096 28.8,50.952 28.536,50.664 C28.248,50.376 28.104,50.04 28.104,49.632 C28.104,49.2 28.248,48.864 28.536,48.576 C28.8,48.288 29.136,48.144 29.568,48.144 Z M35.256,33.864 L45.216,33.864 L45.216,35.616 L36.864,35.616 L36.288,41.352 L36.384,41.352 C36.864,40.776 37.488,40.344 38.232,40.056 C38.904,39.768 39.624,39.648 40.416,39.648 C42.048,39.648 43.368,40.152 44.376,41.184 C45.384,42.24 45.912,43.68 45.912,45.528 C45.912,47.256 45.288,48.672 44.064,49.776 C42.912,50.808 41.472,51.336 39.792,51.336 C38.28,51.336 36.984,50.928 35.928,50.112 C34.728,49.2 34.08,47.952 33.96,46.392 L35.904,46.392 C36,47.472 36.432,48.312 37.2,48.888 C37.872,49.392 38.76,49.656 39.816,49.656 C41.016,49.656 42,49.272 42.792,48.504 C43.56,47.736 43.968,46.752 43.968,45.552 C43.968,44.184 43.584,43.128 42.864,42.384 C42.168,41.616 41.184,41.256 39.936,41.256 C39.12,41.256 38.4,41.424 37.752,41.784 C37.08,42.12 36.552,42.648 36.216,43.32 L34.344,43.32 L35.256,33.864 Z" id="PM-2.5" fill="#FFFFFF"></path>
                    </g>
                </g>
            </g>
        </g>
    </g>
</svg>