<?xml version="1.0" encoding="UTF-8"?>
<svg width="77px" height="70px" viewBox="0 0 77 70" version="1.1" xmlns="http://www.w3.org/2000/svg" xmlns:xlink="http://www.w3.org/1999/xlink">
    <!-- Generator: Sketch 48.1 (47250) - http://www.bohemiancoding.com/sketch -->
    <title>Group 7</title>
    <desc>Created with Sketch.</desc>
    <defs>
        <linearGradient x1="50%" y1="0%" x2="50%" y2="100%" id="linearGradient-1">
            <stop stop-color="#FD524E" offset="0%"></stop>
            <stop stop-color="#FF0200" offset="100%"></stop>
        </linearGradient>
    </defs>
    <g id="P1-首页" stroke="none" stroke-width="1" fill="none" fill-rule="evenodd" transform="translate(-851.000000, -96.000000)">
        <g id="空气质量指数" transform="translate(60.000000, 38.000000)">
            <g id="pm25空气质量-copy-2" transform="translate(468.000000, 56.000000)">
                <g id="Group-7" transform="translate(323.000000, 0.000000)">
                    <path d="M0,2 L67,2 C72.5228475,2 77,6.4771525 77,12 L77,72 L0,2 Z" id="Rectangle" fill="url(#linearGradient-1)" opacity="0.8"></path>
                    <path d="M49.52,21.86 L49.52,33.98 L48.44,33.98 L48.44,33.1 L37.56,33.1 L37.56,33.98 L36.48,33.98 L36.48,21.86 L41.94,21.86 C42.14,21.1 42.28,20.32 42.36,19.52 L34.2,19.52 L34.2,18.48 L39.48,18.48 C39.18,17.62 38.82,16.8 38.38,16.04 L39.44,15.64 C39.86,16.44 40.24,17.38 40.6,18.48 L45.28,18.48 C45.76,17.58 46.18,16.62 46.54,15.6 L47.62,15.98 C47.26,16.92 46.88,17.76 46.44,18.48 L51.8,18.48 L51.8,19.52 L43.52,19.52 C43.4,20.34 43.22,21.12 43.02,21.86 L49.52,21.86 Z M37.56,32.1 L48.44,32.1 L48.44,29.62 L37.56,29.62 L37.56,32.1 Z M37.56,28.66 L48.44,28.66 L48.44,26.24 L37.56,26.24 L37.56,28.66 Z M37.56,25.28 L48.44,25.28 L48.44,22.86 L37.56,22.86 L37.56,25.28 Z M54.2,16.58 L71.8,16.58 L71.8,17.58 L65.76,17.58 L65.76,19.64 L70.54,19.64 L70.54,24.46 L62.1,24.46 C61.7,25.2 61.32,25.88 60.96,26.52 L72.02,26.52 L72.02,27.54 L67.64,27.54 C67.22,28.86 66.42,29.96 65.26,30.84 C67.38,31.5 69.56,32.28 71.76,33.16 L71.1,34.04 C68.82,33.08 66.54,32.24 64.26,31.5 C64.22,31.52 64.18,31.54 64.18,31.56 C62.26,32.6 59.16,33.4 54.86,33.96 L54.44,32.98 C58.28,32.54 61.1,31.9 62.92,31.08 C61.2,30.56 59.46,30.1 57.72,29.7 C58.2,28.98 58.66,28.26 59.1,27.54 L53.96,27.54 L53.96,26.52 L59.72,26.52 C60.12,25.82 60.52,25.14 60.9,24.46 L55.46,24.46 L55.46,19.64 L60.24,19.64 L60.24,17.58 L54.2,17.58 L54.2,16.58 Z M64.08,30.48 C65.3,29.7 66.12,28.72 66.54,27.54 L60.34,27.54 C59.94,28.18 59.58,28.74 59.24,29.24 C60.82,29.58 62.44,30 64.08,30.48 Z M64.74,19.64 L64.74,17.58 L61.26,17.58 L61.26,19.64 L64.74,19.64 Z M69.5,23.5 L69.5,20.58 L65.76,20.58 L65.76,23.5 L69.5,23.5 Z M64.74,23.5 L64.74,20.58 L61.26,20.58 L61.26,23.5 L64.74,23.5 Z M60.24,23.5 L60.24,20.58 L56.5,20.58 L56.5,23.5 L60.24,23.5 Z" id="首要" fill="#FFFFFF" transform="translate(53.110000, 24.820000) rotate(43.000000) translate(-53.110000, -24.820000) "></path>
                </g>
            </g>
        </g>
    </g>
</svg>